// Jest Snapshot v1, https://goo.gl/fbAQLP

exports[`renders correctly 1`] = `
<View
  style={
    Object {
      "height": 300,
    }
  }
>
  <Text
    style={
      Object {
        "color": "rgba(96,100,109, 1)",
        "fontSize": 17,
        "lineHeight": 24,
        "textAlign": "center",
      }
    }
  />
</View>
`;
