// Jest Snapshot v1, https://goo.gl/fbAQLP

exports[`HomeScreen snapshot renders the home screen 1`] = `
<View
  style={
    Object {
      "backgroundColor": "rgba(251, 249, 240, 1)",
      "flex": 1,
    }
  }
/>
`;
